[
    "Abactinal",
    "Abandoned",
    "Abashed",
    "Abatable",
    "Abaxial",
    "Abbatial",
    "Abbreviated",
    "Abdominal",
    "Abducent",
    "Abducting",
    "Aberrant",
    "Abeyant",
    "Abhorrent",
    "Abiding",
    "Abject",
    "Able",
    "Able-Bodied",
    "Abnormal",
    "Abounding",
    "Abrasive",
    "Abrupt",
    "Absent",
    "Absentminded",
    "Absolute",
    "Absorbed",
    "Absorbing",
    "Abstracted",
    "Absurd",
    "Abundant",
    "Abusive",
    "Abysmal",
    "Academic",
    "Acceptable",
    "Accepting",
    "Accessible",
    "Accidental",
    "Acclaimed",
    "Accommodating",
    "Accompanying",
    "Accountable",
    "Accurate",
    "Accusative",
    "Accused",
    "Accusing",
    "Acerbic",
    "Achievable",
    "Aching",
    "Acid",
    "Acidic",
    "Acknowledged",
    "Acoustic",
    "Acrid",
    "Acrimonious",
    "Acrobatic",
    "Actionable",
    "Active",
    "Actual",
    "Ad Hoc",
    "Adamant",
    "Adaptable",
    "Adaptive",
    "Addicted",
    "Addictive",
    "Additional",
    "Adept",
    "Adequate",
    "Adhesive",
    "Adjacent",
    "Adjoining",
    "Adjustable",
    "Administrative",
    "Admirable",
    "Admired",
    "Admiring",
    "Adopted",
    "Adoptive",
    "Adorable",
    "Adored",
    "Adoring",
    "Adrenalized",
    "Adroit",
    "Adult",
    "Advanced",
    "Advantageous",
    "Adventurous",
    "Adversarial",
    "Advisable",
    "Aerial",
    "Affable",
    "Affected",
    "Affectionate",
    "Affirmative",
    "Affordable",
    "Afraid",
    "Afternoon",
    "Agape",
    "Ageless",
    "Aggravated",
    "Aggravating",
    "Aggressive",
    "Agitated",
    "Agonizing",
    "Agrarian",
    "Agreeable",
    "Aimless",
    "Airline",
    "Airsick",
    "Alarmed",
    "Alarming",
    "Alcoholic",
    "Alert",
    "Algebraic",
    "Alien",
    "Alienated",
    "Alike",
    "Alive",
    "All Too Common",
    "All-Around",
    "All-Purpose",
    "Alleged",
    "Allowable",
    "Alluring",
    "Allusive",
    "Aloof",
    "Alterable",
    "Alternating",
    "Alternative",
    "Amazed",
    "Amazing",
    "Ambient",
    "Ambiguous",
    "Ambitious",
    "Ambulant",
    "Ambulatory",
    "Amiable",
    "Amicable",
    "Amphibian",
    "Amused",
    "Amusing",
    "Ancient",
    "Anecdotal",
    "Anemic",
    "Angelic",
    "Angered",
    "Angry",
    "Angular",
    "Animal",
    "Animated",
    "Annoyed",
    "Annoying",
    "Annual",
    "Anonymous",
    "Another",
    "Antagonistic",
    "Anticipated",
    "Anticlimactic",
    "Anticorrosive",
    "Antiquated",
    "Antiseptic",
    "Antisocial",
    "Antsy",
    "Anxious",
    "Apathetic",
    "Apologetic",
    "Apologizing",
    "Appalling",
    "Appealing",
    "Appetizing",
    "Applauding",
    "Applicable",
    "Applicative",
    "Appreciative",
    "Apprehensive",
    "Approachable",
    "Approaching",
    "Appropriate",
    "Approving",
    "Approximate",
    "Aquatic",
    "Architectural",
    "Ardent",
    "Arduous",
    "Arguable",
    "Argumentative",
    "Arid",
    "Aristocratic",
    "Aromatic",
    "Arresting",
    "Arrogant",
    "Artful",
    "Artificial",
    "Artistic",
    "Artless",
    "Ashamed",
    "Aspiring",
    "Assertive",
    "Assignable",
    "Assumable",
    "Assured",
    "Assuring",
    "Astonished",
    "Astonishing",
    "Astounded",
    "Astounding",
    "Astringent",
    "Astronomical",
    "Astute",
    "Asymmetrical",
    "Athletic",
    "Atomic",
    "Atrocious",
    "Attachable",
    "Attainable",
    "Attentive",
    "Attractive",
    "Attributable",
    "Atypical",
    "Audacious",
    "Auspicious",
    "Authentic",
    "Authoritarian",
    "Authoritative",
    "Autobiographic",
    "Autographed",
    "Automatic",
    "Autonomous",
    "Available",
    "Avant-Garde",
    "Avenging",
    "Average",
    "Avian",
    "Avid",
    "Avoidable",
    "Awake",
    "Awakening",
    "Aware",
    "Away",
    "Awesome",
    "Awful",
    "Awkward",
    "Axiomatic",
    "Babbling",
    "Baby",
    "Background",
    "Backhanded",
    "Bacterial",
    "Bad",
    "Bad-Tempered",
    "Baffled",
    "Baffling",
    "Bald",
    "Balding",
    "Balmy",
    "Bamboozled",
    "Banal",
    "Bandaged",
    "Banging",
    "Bankable",
    "Banned",
    "Bantering",
    "Barbaric",
    "Barbarous",
    "Barbequed",
    "Barefooted",
    "Barking",
    "Barmy",
    "Barren",
    "Barricaded",
    "Basal",
    "Basaltic",
    "Baseborn",
    "Based",
    "Baseless",
    "Bashful",
    "Basic",
    "Bathyal",
    "Battered",
    "Battle-Hardened",
    "Battle-Ready",
    "Battlemented",
    "Batty",
    "Batwing",
    "Bawling",
    "Beady",
    "Beaming",
    "Bearable",
    "Beautiful",
    "Beckoning",
    "Bedazzled",
    "Bedazzling",
    "Beefy",
    "Beeping",
    "Befitting",
    "Befuddled",
    "Beginning",
    "Belching",
    "Believable",
    "Bellicose",
    "Belligerent",
    "Bellowing",
    "Bendable",
    "Beneficial",
    "Benevolent",
    "Benign",
    "Bent",
    "Berserk",
    "Best",
    "Betrayed",
    "Better",
    "Better Off",
    "Better-Late-Than-Never",
    "Bewildered",
    "Bewildering",
    "Bewitched",
    "Bewitching",
    "Biased",
    "Biblical",
    "Big",
    "Big-City",
    "Big-Headed",
    "Bigger",
    "Biggest",
    "Bighearted",
    "Bigoted",
    "Bilingual",
    "Billable",
    "Billowy",
    "Binary",
    "Binding",
    "Bioactive",
    "Biodegradable",
    "Biographical",
    "Bite-Sized",
    "Biting",
    "Bitter",
    "Bizarre",
    "Black",
    "Black-And-Blue",
    "Blamable",
    "Blameless",
    "Bland",
    "Blank",
    "Blaring",
    "Blasphemous",
    "Blatant",
    "Blazing",
    "Bleached",
    "Bleak",
    "Bleary",
    "Bleary-Eyed",
    "Blessed",
    "Blind",
    "Blindfolded",
    "Blinding",
    "Blissful",
    "Blistering",
    "Bloated",
    "Blonde",
    "Blood-Red",
    "Bloodied",
    "Bloodthirsty",
    "Bloody",
    "Blooming",
    "Blossoming",
    "Blue",
    "Blue-eyed",
    "Blue-haired",
    "Blundering",
    "Blunt",
    "Blurred",
    "Blurry",
    "Blushing",
    "Boastful",
    "Bodacious",
    "Bohemian",
    "Boiling",
    "Boisterous",
    "Bold",
    "Bookish",
    "Booming",
    "Boorish",
    "Bordering",
    "Bored",
    "Boring",
    "Bossy",
    "Both",
    "Bothered",
    "Bouncing",
    "Bouncy",
    "Boundless",
    "Bountiful",
    "Boyish",
    "Braided",
    "Brainless",
    "Brainy",
    "Brash",
    "Brassy",
    "Brave",
    "Brawny",
    "Brazen",
    "Breakable",
    "Breathable",
    "Breathless",
    "Breathtaking",
    "Breezy",
    "Bribable",
    "Brick",
    "Brief",
    "Bright",
    "Bright-Eyed",
    "Bright-Red",
    "Brilliant",
    "Briny",
    "Brisk",
    "Bristly",
    "Broad",
    "Broke",
    "Broken",
    "Broken-Hearted",
    "Bronchial",
    "Bronze",
    "Bronzed",
    "Brooding",
    "Brown",
    "Brown-eyed",
    "Bruised",
    "Brunette",
    "Brutal",
    "Brutish",
    "Bubbly",
    "Budget",
    "Built-In",
    "Bulky",
    "Bumpy",
    "Bungling",
    "Buoyant",
    "Bureaucratic",
    "Burly",
    "Burnable",
    "Burning",
    "Bushy",
    "Busiest",
    "Business",
    "Bustling",
    "Busy",
    "Buzzing",
    "Cackling",
    "Caged",
    "Cagey",
    "Calculable",
    "Calculated",
    "Calculating",
    "Callous",
    "Calm",
    "Calming",
    "Camouflaged",
    "Cancelled",
    "Cancerous",
    "Candid",
    "Cantankerous",
    "Capable",
    "Capricious",
    "Captivated",
    "Captivating",
    "Captive",
    "Carefree",
    "Careful",
    "Careless",
    "Caring",
    "Carnivorous",
    "Carpeted",
    "Carsick",
    "Casual",
    "Catastrophic",
    "Catatonic",
    "Catchable",
    "Caustic",
    "Cautious",
    "Cavalier",
    "Cavernous",
    "Ceaseless",
    "Celebrated",
    "Celestial",
    "Centered",
    "Central",
    "Cerebral",
    "Ceremonial",
    "Certain",
    "Certifiable",
    "Certified",
    "Challenged",
    "Challenging",
    "Chance",
    "Changeable",
    "Changing",
    "Chanting",
    "Charging",
    "Charismatic",
    "Charitable",
    "Charmed",
    "Charming",
    "Chattering",
    "Chatting",
    "Chatty",
    "Chauvinistic",
    "Cheap",
    "Cheapest",
    "Cheeky",
    "Cheerful",
    "Cheering",
    "Cheerless",
    "Cheery",
    "Chemical",
    "Chewable",
    "Chewy",
    "Chic",
    "Chicken",
    "Chief",
    "Childish",
    "Childlike",
    "Chilling",
    "Chilly",
    "Chivalrous",
    "Choice",
    "Choking",
    "Choppy",
    "Chronological",
    "Chubby",
    "Chuckling",
    "Chunky",
    "Cinematic",
    "Circling",
    "Circular",
    "Circumstantial",
    "Civil",
    "Civilian",
    "Civilized",
    "Clammy",
    "Clamoring",
    "Clandestine",
    "Clanging",
    "Clapping",
    "Clashing",
    "Classic",
    "Classical",
    "Classifiable",
    "Classified",
    "Classy",
    "Clean",
    "Cleanable",
    "Clear",
    "Cleared",
    "Clearheaded",
    "Clever",
    "Climatic",
    "Climbable",
    "Clinging",
    "Clingy",
    "Clinical",
    "Cliquish",
    "Clogged",
    "Cloistered",
    "Close",
    "Closeable",
    "Closed",
    "Closed-Minded",
    "Clouded",
    "Cloudless",
    "Cloudy",
    "Clownish",
    "Clueless",
    "Clumsy",
    "Cluttered",
    "Coachable",
    "Coarse",
    "Cockamamie",
    "Cocky",
    "Codified",
    "Coercive",
    "Cognitive",
    "Coherent",
    "Cohesive",
    "Coincidental",
    "Cold",
    "Coldhearted",
    "Collaborative",
    "Collapsed",
    "Collapsing",
    "Collectable",
    "Collegial",
    "Colloquial",
    "Colonial",
    "Colorful",
    "Colorless",
    "Colossal",
    "Combative",
    "Combined",
    "Comfortable",
    "Comforted",
    "Comforting",
    "Comical",
    "Commanding",
    "Commemorative",
    "Commendable",
    "Commercial",
    "Committed",
    "Common",
    "Communal",
    "Communicable",
    "Communicative",
    "Communist",
    "Compact",
    "Comparable",
    "Comparative",
    "Compassionate",
    "Compelling",
    "Competent",
    "Competitive",
    "Complacent",
    "Complaining",
    "Complete",
    "Completed",
    "Complex",
    "Compliant",
    "Complicated",
    "Complimentary",
    "Compound",
    "Comprehensive",
    "Compulsive",
    "Compulsory",
    "Computer",
    "Computerized",
    "Concealable",
    "Concealed",
    "Conceited",
    "Conceivable",
    "Concerned",
    "Concerning",
    "Concerted",
    "Concise",
    "Concurrent",
    "Condemned",
    "Condensed",
    "Condescending",
    "Conditional",
    "Confident",
    "Confidential",
    "Confirmable",
    "Confirmed",
    "Conflicted",
    "Conflicting",
    "Conformable",
    "Confounded",
    "Confused",
    "Confusing",
    "Congenial",
    "Congested",
    "Congressional",
    "Congruent",
    "Congruous",
    "Connectable",
    "Connected",
    "Connecting",
    "Connective",
    "Conscientious",
    "Conscious",
    "Consecutive",
    "Consensual",
    "Consenting",
    "Conservative",
    "Considerable",
    "Considerate",
    "Consistent",
    "Consoling",
    "Conspicuous",
    "Conspiratorial",
    "Constant",
    "Constitutional",
    "Constrictive",
    "Constructive",
    "Consumable",
    "Consummate",
    "Contagious",
    "Containable",
    "Contemplative",
    "Contemporary",
    "Contemptible",
    "Contemptuous",
    "Content",
    "Contented",
    "Contentious",
    "Contextual",
    "Continual",
    "Continuing",
    "Continuous",
    "Contoured",
    "Contractual",
    "Contradicting",
    "Contradictory",
    "Contrarian",
    "Contrary",
    "Contributive",
    "Contrite",
    "Controllable",
    "Controlling",
    "Controversial",
    "Convenient",
    "Conventional",
    "Conversational",
    "Convinced",
    "Convincing",
    "Convoluted",
    "Convulsive",
    "Cooing",
    "Cooked",
    "Cool",
    "Coolest",
    "Cooperative",
    "Coordinated",
    "Copious",
    "Coquettish",
    "Cordial",
    "Corner",
    "Cornered",
    "Corny",
    "Corporate",
    "Corpulent",
    "Correct",
    "Correctable",
    "Corrective",
    "Corresponding",
    "Corrosive",
    "Corrupt",
    "Corrupting",
    "Corruptive",
    "Cosmetic",
    "Cosmic",
    "Costly",
    "Cottony",
    "Coughing",
    "Courageous",
    "Courteous",
    "Covert",
    "Coveted",
    "Cowardly",
    "Cowering",
    "Coy",
    "Cozy",
    "Crabby",
    "Cracked",
    "Crackling",
    "Crafty",
    "Craggy",
    "Crammed",
    "Cramped",
    "Cranky",
    "Crashing",
    "Crass",
    "Craven",
    "Crawling",
    "Crazy",
    "Creaking",
    "Creaky",
    "Creamy",
    "Creative",
    "Credible",
    "Creeping",
    "Creepy",
    "Crestfallen",
    "Criminal",
    "Crippled",
    "Crippling",
    "Crisp",
    "Crispy",
    "Critical",
    "Crooked",
    "Cropped",
    "Cross",
    "Crossed",
    "Crotchety",
    "Crowded",
    "Crucial",
    "Crude",
    "Cruel",
    "Crumbling",
    "Crumbly",
    "Crumply",
    "Crunchable",
    "Crunching",
    "Crunchy",
    "Crushable",
    "Crushed",
    "Crusty",
    "Crying",
    "Cryptic",
    "Crystalline",
    "Crystallized",
    "Cuddly",
    "Culpable",
    "Cultural",
    "Cultured",
    "Cumbersome",
    "Cumulative",
    "Cunning",
    "Curable",
    "Curative",
    "Curious",
    "Curly",
    "Current",
    "Cursed",
    "Curt",
    "Curved",
    "Curvy",
    "Curvaceous",
    "Customary",
    "Cut",
    "Cute",
    "Cutting",
    "Cylindrical",
    "Cynical",
    "Daffy",
    "Daft",
    "Daily",
    "Dainty",
    "Damaged",
    "Damaging",
    "Damn",
    "Damning",
    "Damp",
    "Dampish",
    "Danceable",
    "Dandy",
    "Dangerous",
    "Dapper",
    "Daring",
    "Dark",
    "Darkened",
    "Darkling",
    "Darned",
    "Dashing",
    "Daughterly",
    "Daunting",
    "Dauntless",
    "Dawdling",
    "Day",
    "Daylong",
    "Dazed",
    "Dazzling",
    "Dead",
    "Deadly",
    "Deadpan",
    "Deaf",
    "Deafening",
    "Dear",
    "Debatable",
    "Debonair",
    "Decadent",
    "Decayed",
    "Decaying",
    "Deceitful",
    "Deceivable",
    "Deceiving",
    "Decent",
    "Decentralized",
    "Deceptive",
    "Decimated",
    "Decipherable",
    "Decisive",
    "Declining",
    "Decorative",
    "Decorous",
    "Decreasing",
    "Decrepit",
    "Dedicated",
    "Deep",
    "Deepening",
    "Deeply",
    "Defeated",
    "Defective",
    "Defendable",
    "Defenseless",
    "Defensible",
    "Defensive",
    "Defiant",
    "Deficient",
    "Definable",
    "Definitive",
    "Deformed",
    "Degenerative",
    "Degraded",
    "Dehydrated",
    "Dejected",
    "Delectable",
    "Deliberate",
    "Deliberative",
    "Delicate",
    "Delicious",
    "Delighted",
    "Delightful",
    "Delinquent",
    "Delirious",
    "Deliverable",
    "Deluded",
    "Demanding",
    "Demented",
    "Democratic",
    "Demonic",
    "Demonstrative",
    "Demure",
    "Deniable",
    "Dense",
    "Dependable",
    "Dependent",
    "Deplorable",
    "Deploring",
    "Depraved",
    "Depressed",
    "Depressing",
    "Depressive",
    "Deprived",
    "Deranged",
    "Derivative",
    "Derogative",
    "Derogatory",
    "Descriptive",
    "Deserted",
    "Designer",
    "Desirable",
    "Desirous",
    "Desolate",
    "Despairing",
    "Desperate",
    "Despicable",
    "Despised",
    "Despondent",
    "Destroyed",
    "Destructive",
    "Detachable",
    "Detached",
    "Detailed",
    "Detectable",
    "Determined",
    "Detestable",
    "Detrimental",
    "Devastated",
    "Devastating",
    "Devious",
    "Devoted",
    "Devout",
    "Dexterous",
    "Diabolical",
    "Diagonal",
    "Didactic",
    "Different",
    "Difficult",
    "Diffuse",
    "Digestive",
    "Digital",
    "Dignified",
    "Digressive",
    "Dilapidated",
    "Diligent",
    "Dim",
    "Diminishing",
    "Diminutive",
    "Dingy",
    "Diplomatic",
    "Dire",
    "Direct",
    "Direful",
    "Dirty",
    "Disabled",
    "Disadvantaged",
    "Disadvantageous",
    "Disaffected",
    "Disagreeable",
    "Disappearing",
    "Disappointed",
    "Disappointing",
    "Disapproving",
    "Disarming",
    "Disastrous",
    "Discarded",
    "Discernable",
    "Disciplined",
    "Disconnected",
    "Discontented",
    "Discordant",
    "Discouraged",
    "Discouraging",
    "Discourteous",
    "Discredited",
    "Discreet",
    "Discriminating",
    "Discriminatory",
    "Discussable",
    "Disdainful",
    "Diseased",
    "Disenchanted",
    "Disgraceful",
    "Disgruntled",
    "Disgusted",
    "Disgusting",
    "Disheartened",
    "Disheartening",
    "Dishonest",
    "Dishonorable",
    "Disillusioned",
    "Disinclined",
    "Disingenuous",
    "Disinterested",
    "Disjointed",
    "Dislikeable",
    "Disliked",
    "Disloyal",
    "Dismal",
    "Dismissive",
    "Disobedient",
    "Disorderly",
    "Disorganized",
    "Disparaging",
    "Disparate",
    "Dispassionate",
    "Dispensable",
    "Displaced",
    "Displeased",
    "Displeasing",
    "Disposable",
    "Disproportionate",
    "Disproved",
    "Disputable",
    "Disputatious",
    "Disputed",
    "Disreputable",
    "Disrespectful",
    "Disruptive",
    "Dissatisfied",
    "Dissimilar",
    "Dissolvable",
    "Dissolving",
    "Dissonant",
    "Dissuasive",
    "Distant",
    "Distasteful",
    "Distinct",
    "Distinctive",
    "Distinguished",
    "Distracted",
    "Distracting",
    "Distraught",
    "Distressed",
    "Distressing",
    "Distrustful",
    "Disturbed",
    "Disturbing",
    "Divergent",
    "Diverging",
    "Diverse",
    "Diversified",
    "Divided",
    "Divine",
    "Divisive",
    "Dizzy",
    "Dizzying",
    "Doable",
    "Documentary",
    "Dogged",
    "Doggish",
    "Dogmatic",
    "Doleful",
    "Dollish",
    "Domed",
    "Domestic",
    "Dominant",
    "Domineering",
    "Dorsal",
    "Doting",
    "Double",
    "Doubtful",
    "Doubting",
    "Dovish",
    "Dowdy",
    "Down",
    "Down-And-Out",
    "Downhearted",
    "Downloadable",
    "Downtown",
    "Downward",
    "Dozing",
    "Drab",
    "Drained",
    "Dramatic",
    "Drastic",
    "Dreaded",
    "Dreadful",
    "Dreaming",
    "Dreamy",
    "Dreary",
    "Drenched",
    "Dress",
    "Dressy",
    "Dried",
    "Dripping",
    "Drivable",
    "Driven",
    "Droll",
    "Drooping",
    "Droopy",
    "Drowsy",
    "Drunk",
    "Dry",
    "Dual",
    "Dubious",
    "Due",
    "Dulcet",
    "Dull",
    "Duplicitous",
    "Durable",
    "Dusty",
    "Dutiful",
    "Dwarfish",
    "Dwindling",
    "Dynamic",
    "Dysfunctional",
    "Eager",
    "Ear-Piercing",
    "Ear-Splitting",
    "Early",
    "Earnest",
    "Earthshaking",
    "Earthy",
    "East",
    "Eastern",
    "Easy",
    "Eatable",
    "Eating",
    "Eccentric",
    "Echoing",
    "Ecological",
    "Economic",
    "Economical",
    "Economy",
    "Ecstatic",
    "Edgy",
    "Editable",
    "Educated",
    "Educational",
    "Eerie",
    "Effective",
    "Effervescent",
    "Efficacious",
    "Efficient",
    "Effortless",
    "Effusive",
    "Egalitarian",
    "Egocentric",
    "Egomaniacal",
    "Egotistical",
    "Eighth",
    "Either",
    "Elaborate",
    "Elastic",
    "Elated",
    "Elderly",
    "Electric",
    "Electrical",
    "Electrifying",
    "Electronic",
    "Elegant",
    "Elementary",
    "Elevated",
    "Elfish",
    "Eligible",
    "Elite",
    "Eloquent",
    "Elusive",
    "Emaciated",
    "Embarrassed",
    "Embarrassing",
    "Embattled",
    "Embittered",
    "Emblematic",
    "Emboldened",
    "Embroiled",
    "Emergency",
    "Eminent",
    "Emo",
    "Emotional",
    "Emotionless",
    "Empirical",
    "Empty",
    "Enamored",
    "Enchanted",
    "Enchanting",
    "Encouraged",
    "Encouraging",
    "Encrusted",
    "Endangered",
    "Endearing",
    "Endemic",
    "Endless",
    "Endurable",
    "Enduring",
    "Energetic",
    "Energizing",
    "Enforceable",
    "Engaging",
    "Engrossing",
    "Enhanced",
    "Enigmatic",
    "Enjoyable",
    "Enlarged",
    "Enlightened",
    "Enormous",
    "Enraged",
    "Ensuing",
    "Enterprising",
    "Entertained",
    "Entertaining",
    "Enthralled",
    "Enthused",
    "Enthusiastic",
    "Enticing",
    "Entire",
    "Entranced",
    "Entrepreneurial",
    "Enumerable",
    "Enviable",
    "Envious",
    "Environmental",
    "Episodic",
    "Equable",
    "Equidistant",
    "Equitable",
    "Equivalent",
    "Erasable",
    "Eroding",
    "Errant",
    "Erratic",
    "Erroneous",
    "Eruptive",
    "Escalating",
    "Esoteric",
    "Essential",
    "Established",
    "Estimated",
    "Estranged",
    "Eternal",
    "Ethereal",
    "Ethical",
    "Ethnic",
    "Euphemistic",
    "Euphoric",
    "Evasive",
    "Even",
    "Evenhanded",
    "Evening",
    "Eventful",
    "Eventual",
    "Everlasting",
    "Evil",
    "Evocative",
    "Exacerbating",
    "Exact",
    "Exacting",
    "Exaggerated",
    "Exalted",
    "Exasperated",
    "Exasperating",
    "Excellent",
    "Exceptional",
    "Excessive",
    "Exchangeable",
    "Excitable",
    "Excited",
    "Exciting",
    "Exclusive",
    "Excruciating",
    "Excusable",
    "Executable",
    "Exemplary",
    "Exhausted",
    "Exhausting",
    "Exhaustive",
    "Exhilarated",
    "Exhilarating",
    "Existing",
    "Exotic",
    "Expandable",
    "Expanded",
    "Expanding",
    "Expansive",
    "Expectant",
    "Expected",
    "Expedient",
    "Expeditious",
    "Expendable",
    "Expensive",
    "Experimental",
    "Expert",
    "Expired",
    "Expiring",
    "Explainable",
    "Explicit",
    "Exploding",
    "Exploitative",
    "Exploited",
    "Explosive",
    "Exponential",
    "Exposed",
    "Express",
    "Expressionistic",
    "Expressionless",
    "Expressive",
    "Exquisite",
    "Extemporaneous",
    "Extendable",
    "Extended",
    "Extension",
    "Extensive",
    "Exterior",
    "External",
    "Extra",
    "Extra-Large",
    "Extra-Small",
    "Extraneous",
    "Extraordinary",
    "Extravagant",
    "Extreme",
    "Exuberant",
    "Eye-Popping",
    "Fabled",
    "Fabulous",
    "Facetious",
    "Factitious",
    "Factual",
    "Faded",
    "Fading",
    "Failed",
    "Faint",
    "Fainthearted",
    "Fair",
    "Faithful",
    "Faithless",
    "Fallacious",
    "False",
    "Falsified",
    "Faltering",
    "Familiar",
    "Famished",
    "Famous",
    "Fanatical",
    "Fanciful",
    "Fancy",
    "Fantastic",
    "Far",
    "Far-Flung",
    "Faraway",
    "Farcical",
    "Farsighted",
    "Fascinated",
    "Fascinating",
    "Fascistic",
    "Fashionable",
    "Fast",
    "Fast-Moving",
    "Fastest",
    "Fastidious",
    "Fat",
    "Fatal",
    "Fateful",
    "Fatherly",
    "Fathomable",
    "Fathomless",
    "Fatigued",
    "Faulty",
    "Favorable",
    "Favorite",
    "Fawning",
    "Feared",
    "Fearful",
    "Fearless",
    "Fearsome",
    "Feathered",
    "Feathery",
    "Feckless",
    "Federal",
    "Feeble",
    "Feebleminded",
    "Feeling",
    "Feigned",
    "Felonious",
    "Feminine",
    "Fermented",
    "Ferocious",
    "Fertile",
    "Fervent",
    "Fervid",
    "Festive",
    "Fetching",
    "Fetid",
    "Feudal",
    "Feverish",
    "Fictional",
    "Fictitious",
    "Fidgeting",
    "Fidgety",
    "Fiendish",
    "Fierce",
    "Fiery",
    "Fifth",
    "Filmy",
    "Filtered",
    "Filthy",
    "Final",
    "Financial",
    "Fine",
    "Finicky",
    "Finite",
    "Fireproof",
    "Firm",
    "First",
    "Fiscal",
    "Fishy",
    "Fit",
    "Fitted",
    "Fitting",
    "Fixable",
    "Fixed",
    "Flabby",
    "Flagrant",
    "Flaky",
    "Flamboyant",
    "Flaming",
    "Flammable",
    "Flashy",
    "Flat",
    "Flattened",
    "Flattered",
    "Flattering",
    "Flavored",
    "Flavorful",
    "Flavorless",
    "Flawed",
    "Flawless",
    "Fleeting",
    "Flexible",
    "Flickering",
    "Flighty",
    "Flimsy",
    "Flippant",
    "Flirtatious",
    "Floating",
    "Flooded",
    "Floppy",
    "Floral",
    "Flowering",
    "Flowery",
    "Fluent",
    "Fluffy",
    "Flummoxed",
    "Flushed",
    "Fluttering",
    "Flying",
    "Foamy",
    "Focused",
    "Foggy",
    "Folded",
    "Following",
    "Fond",
    "Foolhardy",
    "Foolish",
    "Forbidding",
    "Forceful",
    "Foreboding",
    "Foregoing",
    "Foreign",
    "Forensic",
    "Foreseeable",
    "Forged",
    "Forgetful",
    "Forgettable",
    "Forgivable",
    "Forgiving",
    "Forgotten",
    "Forked",
    "Formal",
    "Formative",
    "Former",
    "Formidable",
    "Formless",
    "Formulaic",
    "Forthright",
    "Fortuitous",
    "Fortunate",
    "Forward",
    "Foul",
    "Foul-Smelling",
    "Fourth",
    "Foxy",
    "Fractional",
    "Fractious",
    "Fragile",
    "Fragmented",
    "Fragrant",
    "Frail",
    "Frank",
    "Frantic",
    "Fraternal",
    "Fraudulent",
    "Frayed",
    "Freakish",
    "Freaky",
    "Freckled",
    "Free",
    "Freezing",
    "Frenzied",
    "Frequent",
    "Fresh",
    "Fretful",
    "Fried",
    "Friendly",
    "Frightened",
    "Frightening",
    "Frightful",
    "Frigid",
    "Frilly",
    "Frisky",
    "Frivolous",
    "Front",
    "Frosty",
    "Frothy",
    "Frowning",
    "Frozen",
    "Frugal",
    "Fruitful",
    "Fruitless",
    "Fruity",
    "Frumpy",
    "Frustrated",
    "Frustrating",
    "Fulfilled",
    "Fulfilling",
    "Full",
    "Fully-Grown",
    "Fumbling",
    "Fuming",
    "Fun",
    "Fun-Loving",
    "Functional",
    "Fundamental",
    "Funniest",
    "Funny",
    "Furious",
    "Furry",
    "Furthest",
    "Furtive",
    "Fussy",
    "Futile",
    "Future",
    "Futuristic",
    "Fuzzy",
    "Gabby",
    "Gainful",
    "Gallant",
    "Galling",
    "Game",
    "Gangly",
    "Gaping",
    "Garbled",
    "Gargantuan",
    "Garish",
    "Garrulous",
    "Gaseous",
    "Gasping",
    "Gaudy",
    "Gaunt",
    "Gauzy",
    "Gawky",
    "General",
    "Generative",
    "Generic",
    "Generous",
    "Genial",
    "Genocidal",
    "Gentle",
    "Genuine",
    "Geographic",
    "Geologic",
    "Geometric",
    "Geriatric",
    "Ghastly",
    "Ghostly",
    "Ghoulish",
    "Giant",
    "Giddy",
    "Gifted",
    "Gigantic",
    "Giggling",
    "Gilded",
    "Giving",
    "Glad",
    "Glamorous",
    "Glaring",
    "Glass",
    "Glassy",
    "Gleaming",
    "Glib",
    "Glistening",
    "Glittering",
    "Global",
    "Globular",
    "Gloomy",
    "Glorious",
    "Glossy",
    "Glowing",
    "Gluey",
    "Glum",
    "Gluttonous",
    "Gnarly",
    "Gold",
    "Golden",
    "Good",
    "Good-Looking",
    "Good-Natured",
    "Gooey",
    "Goofy",
    "Gorgeous",
    "Gory",
    "Graceful",
    "Gracious",
    "Gradual",
    "Grainy",
    "Grand",
    "Grandiose",
    "Graphic",
    "Grateful",
    "Gratified",
    "Gratifying",
    "Grating",
    "Gratis",
    "Gratuitous",
    "Grave",
    "Gray",
    "Greasy",
    "Great",
    "Greatest",
    "Greedy",
    "Green",
    "Gregarious",
    "Grey",
    "Grieving",
    "Grim",
    "Grimacing",
    "Grimy",
    "Grinding",
    "Grinning",
    "Gripping",
    "Gritty",
    "Grizzled",
    "Groaning",
    "Groggy",
    "Groomed",
    "Groovy",
    "Gross",
    "Grotesque",
    "Grouchy",
    "Growling",
    "Grown-Up",
    "Grubby",
    "Grueling",
    "Gruesome",
    "Gruff",
    "Grumbling",
    "Grumpy",
    "Guaranteed",
    "Guarded",
    "Guilt-Ridden",
    "Guiltless",
    "Guilty",
    "Gullible",
    "Gurgling",
    "Gushing",
    "Gushy",
    "Gusty",
    "Gutsy",
    "Habitable",
    "Habitual",
    "Haggard",
    "Hairless",
    "Hairy",
    "Halfhearted",
    "Hallowed",
    "Halting",
    "Handsome",
    "Handy",
    "Hanging",
    "Haphazard",
    "Hapless",
    "Happy",
    "Hard",
    "Hard-To-Find",
    "Hardworking",
    "Hardy",
    "Harebrained",
    "Harmful",
    "Harmless",
    "Harmonic",
    "Harmonious",
    "Harried",
    "Harsh",
    "Hasty",
    "Hated",
    "Hateful",
    "Haughty",
    "Haunting",
    "Hawkish",
    "Hazardous",
    "Hazy",
    "Head",
    "Heady",
    "Healthy",
    "Heartbreaking",
    "Heartbroken",
    "Heartless",
    "Heartrending",
    "Hearty",
    "Heated",
    "Heavenly",
    "Heavy",
    "Hectic",
    "Hefty",
    "Heinous",
    "Helpful",
    "Helpless",
    "Heroic",
    "Hesitant",
    "Hideous",
    "High",
    "High-Functioning",
    "High-Maintenance",
    "High-Pitched",
    "High-Risk",
    "Highest",
    "Highfalutin",
    "Hilarious",
    "Hissing",
    "Historical",
    "Hoarse",
    "Hoggish",
    "Holiday",
    "Holistic",
    "Hollow",
    "Home",
    "Homeless",
    "Homely",
    "Homeopathic",
    "Homey",
    "Homogeneous",
    "Honest",
    "Honking",
    "Honorable",
    "Hopeful",
    "Hopeless",
    "Horizontal",
    "Hormonal",
    "Horned",
    "Horrendous",
    "Horrible",
    "Horrid",
    "Horrific",
    "Horrified",
    "Horrifying",
    "Hospitable",
    "Hostile",
    "Hot",
    "Hothouse",
    "Hot Pink",
    "Hot-Blooded",
    "Hot-Shot",
    "Hot-Tempered",
    "Hotheaded",
    "Hour-Long",
    "House",
    "Howling",
    "Huffy",
    "Huge",
    "Huggable",
    "Hulking",
    "Humanitarian",
    "Humanlike",
    "Humble",
    "Humdrum",
    "Humid",
    "Humiliated",
    "Humiliating",
    "Humming",
    "Humongous",
    "Humorless",
    "Humorous",
    "Hungry",
    "Hurried",
    "Hurt",
    "Hurting",
    "Hurtful",
    "Hushed",
    "Husky",
    "Hydraulic",
    "Hydrothermal",
    "Hygienic",
    "Hyper-Active",
    "Hyperbolic",
    "Hypercritical",
    "Hyperirritable",
    "Hypersensitive",
    "Hypertensive",
    "Hypnotic",
    "Hypnotizable",
    "Hypothetical",
    "Hysterical",
    "Icky",
    "Iconoclastic",
    "Icy",
    "Icy-Cold",
    "Ideal",
    "Idealistic",
    "Identical",
    "Identifiable",
    "Idiosyncratic",
    "Idiotic",
    "Idyllic",
    "Ignorable",
    "Ignorant",
    "Ill",
    "Ill-Equipped",
    "Ill-Fated",
    "Ill-Humored",
    "Ill-Informed",
    "Illegal",
    "Illegible",
    "Illegitimate",
    "Illest",
    "Illicit",
    "Illiterate",
    "Illogical",
    "Illuminating",
    "Illusive",
    "Illustrious",
    "Imaginable",
    "Imaginary",
    "Imaginative",
    "Imitative",
    "Immaculate",
    "Immanent",
    "Immature",
    "Immeasurable",
    "Immediate",
    "Immense",
    "Immensurable",
    "Imminent",
    "Immobile",
    "Immodest",
    "Immoral",
    "Immortal",
    "Immovable",
    "Impartial",
    "Impassable",
    "Impassioned",
    "Impatient",
    "Impeccable",
    "Impenetrable",
    "Imperative",
    "Imperceptible",
    "Imperceptive",
    "Imperfect",
    "Imperial",
    "Imperialistic",
    "Impermeable",
    "Impersonal",
    "Impertinent",
    "Impervious",
    "Impetuous",
    "Impish",
    "Implausible",
    "Implicit",
    "Implosive",
    "Impolite",
    "Imponderable",
    "Important",
    "Imported",
    "Imposing",
    "Impossible",
    "Impoverished",
    "Impractical",
    "Imprecise",
    "Impressionable",
    "Impressive",
    "Improbable",
    "Improper",
    "Improvable",
    "Improved",
    "Improving",
    "Imprudent",
    "Impulsive",
    "Impure",
    "Inaccessible",
    "Inaccurate",
    "Inactive",
    "Inadequate",
    "Inadmissible",
    "Inadvertent",
    "Inadvisable",
    "Inalienable",
    "Inalterable",
    "Inane",
    "Inanimate",
    "Inapplicable",
    "Inappropriate",
    "Inapt",
    "Inarguable",
    "Inarticulate",
    "Inartistic",
    "Inattentive",
    "Inaudible",
    "Inauspicious",
    "Incalculable",
    "Incandescent",
    "Incapable",
    "Incessant",
    "Incidental",
    "Inclusive",
    "Incoherent",
    "Incomparable",
    "Incompatible",
    "Incompetent",
    "Incomplete",
    "Incomprehensible",
    "Inconceivable",
    "Inconclusive",
    "Incongruent",
    "Incongruous",
    "Inconsequential",
    "Inconsiderable",
    "Inconsiderate",
    "Inconsistent",
    "Inconsolable",
    "Inconspicuous",
    "Incontrovertible",
    "Inconvenient",
    "Incorrect",
    "Incorrigible",
    "Incorruptible",
    "Increasing",
    "Incredible",
    "Incredulous",
    "Incremental",
    "Incurable",
    "Indecent",
    "Indecipherable",
    "Indecisive",
    "Indefensible",
    "Indefinable",
    "Indefinite",
    "Indelible",
    "Independent",
    "Indescribable",
    "Indestructible",
    "Indeterminable",
    "Indeterminate",
    "Indicative",
    "Indifferent",
    "Indigenous",
    "Indignant",
    "Indirect",
    "Indiscreet",
    "Indiscriminate",
    "Indispensable",
    "Indisputable",
    "Indistinct",
    "Individual",
    "Individualistic",
    "Indivisible",
    "Indomitable",
    "Inductive",
    "Indulgent",
    "Industrial",
    "Industrious",
    "Ineffective",
    "Ineffectual",
    "Inefficient",
    "Inelegant",
    "Ineloquent",
    "Inequitable",
    "Inert",
    "Inescapable",
    "Inevitable",
    "Inexact",
    "Inexcusable",
    "Inexhaustible",
    "Inexpedient",
    "Inexpensive",
    "Inexplicable",
    "Inexpressible",
    "Inexpressive",
    "Inextricable",
    "Infallible",
    "Infamous",
    "Infantile",
    "Infatuated",
    "Infected",
    "Infectious",
    "Inferable",
    "Inferior",
    "Infernal",
    "Infinite",
    "Infinitesimal",
    "Inflamed",
    "Inflammable",
    "Inflammatory",
    "Inflatable",
    "Inflated",
    "Inflexible",
    "Influential",
    "Informal",
    "Informative",
    "Informed",
    "Infrequent",
    "Infuriated",
    "Infuriating",
    "Ingenious",
    "Ingenuous",
    "Inglorious",
    "Ingratiating",
    "Inhabitable",
    "Inharmonious",
    "Inherent",
    "Inhibited",
    "Inhospitable",
    "Inhuman",
    "Inhumane",
    "Initial",
    "Injudicious",
    "Injured",
    "Injurious",
    "Innate",
    "Inner",
    "Innocent",
    "Innocuous",
    "Innovative",
    "Innumerable",
    "Inoffensive",
    "Inoperable",
    "Inoperative",
    "Inopportune",
    "Inordinate",
    "Inorganic",
    "Inquiring",
    "Inquisitive",
    "Insane",
    "Insatiable",
    "Inscrutable",
    "Insecure",
    "Insensible",
    "Insensitive",
    "Inseparable",
    "Inside",
    "Insidious",
    "Insightful",
    "Insignificant",
    "Insincere",
    "Insipid",
    "Insistent",
    "Insolent",
    "Inspirational",
    "Inspired",
    "Inspiring",
    "Instant",
    "Instantaneous",
    "Instinctive",
    "Instinctual",
    "Institutional",
    "Instructive",
    "Instrumental",
    "Insubordinate",
    "Insufferable",
    "Insufficient",
    "Insulted",
    "Insulting",
    "Insurable",
    "Insurmountable",
    "Intangible",
    "Integral",
    "Intellectual",
    "Intelligent",
    "Intelligible",
    "Intended",
    "Intense",
    "Intensive",
    "Intentional",
    "Interactive",
    "Interchangeable",
    "Interdepartmental",
    "Interdependent",
    "Interested",
    "Interesting",
    "Interior",
    "Intermediate",
    "Intermittent",
    "Internal",
    "International",
    "Interpersonal",
    "Interracial",
    "Intestinal",
    "Intimate",
    "Intimidating",
    "Intolerable",
    "Intolerant",
    "Intravenous",
    "Intrepid",
    "Intricate",
    "Intrigued",
    "Intriguing",
    "Intrinsic",
    "Introductory",
    "Introspective",
    "Introverted",
    "Intrusive",
    "Intuitive",
    "Invalid",
    "Invaluable",
    "Invasive",
    "Inventive",
    "Invigorating",
    "Invincible",
    "Invisible",
    "Invited",
    "Inviting",
    "Involuntary",
    "Involved",
    "Inward",
    "Irascible",
    "Irate",
    "Iridescent",
    "Irksome",
    "Iron",
    "Iron-Fisted",
    "Ironic",
    "Irrational",
    "Irreconcilable",
    "Irrefutable",
    "Irregular",
    "Irrelative",
    "Irrelevant",
    "Irremovable",
    "Irreparable",
    "Irreplaceable",
    "Irrepressible",
    "Irresistible",
    "Irresponsible",
    "Irretrievably",
    "Irreverent",
    "Irreversible",
    "Irrevocable",
    "Irritable",
    "Irritated",
    "Irritating",
    "Isolated",
    "Itchy",
    "Itty-Bitty",
    "Jabbering",
    "Jaded",
    "Jagged",
    "Jarring",
    "Jaundiced",
    "Jazzy",
    "Jealous",
    "Jeering",
    "Jerky",
    "Jiggling",
    "Jittery",
    "Jobless",
    "Jocular",
    "Joint",
    "Jolly",
    "Jovial",
    "Joyful",
    "Joyless",
    "Joyous",
    "Jubilant",
    "Judgmental",
    "Judicious",
    "Juicy",
    "Jumbled",
    "Jumpy",
    "Junior",
    "Just",
    "Justifiable",
    "Juvenile",
    "Kaput",
    "Keen",
    "Key",
    "Kind",
    "Kindhearted",
    "Kindly",
    "Kinesthetic",
    "Kingly",
    "Kitchen",
    "Knavish",
    "Knightly",
    "Knobbed",
    "Knobby",
    "Knotty",
    "Knowable",
    "Knowing",
    "Knowledgeable",
    "Known",
    "Labored",
    "Laborious",
    "Lackadaisical",
    "Lacking",
    "Lacy",
    "Lame",
    "Lamentable",
    "Languid",
    "Languishing",
    "Lanky",
    "Larcenous",
    "Large",
    "Larger",
    "Largest",
    "Lascivious",
    "Last",
    "Lasting",
    "Late",
    "Latent",
    "Later",
    "Lateral",
    "Latest",
    "Latter",
    "Laudable",
    "Laughable",
    "Laughing",
    "Lavish",
    "Lawful",
    "Lawless",
    "Lax",
    "Lazy",
    "Lead",
    "Leading",
    "Lean",
    "Learnable",
    "Learned",
    "Leased",
    "Least",
    "Leather",
    "Leathery",
    "Lecherous",
    "Leering",
    "Left",
    "Left-Handed",
    "Legal",
    "Legendary",
    "Legible",
    "Legislative",
    "Legitimate",
    "Lengthy",
    "Lenient",
    "Less-Qualified",
    "Lesser",
    "Lesser-Known",
    "Lethal",
    "Lethargic",
    "Level",
    "Liable",
    "Libelous",
    "Liberal",
    "Licensed",
    "Lifeless",
    "Lifelike",
    "Lifelong",
    "Light",
    "Light-Blue",
    "Lighthearted",
    "Likable",
    "Like-Minded",
    "Likeable",
    "Likely",
    "Lily-Livered",
    "Limber",
    "Limited",
    "Limitless",
    "Limp",
    "Limping",
    "Linear",
    "Lined",
    "Lingering",
    "Linguistic",
    "Liquid",
    "Listless",
    "Literal",
    "Literary",
    "Literate",
    "Lithe",
    "Lithographic",
    "Litigious",
    "Little",
    "Livable",
    "Live",
    "Lively",
    "Livid",
    "Living",
    "Loathsome",
    "Local",
    "Locatable",
    "Locked",
    "Lofty",
    "Logarithmic",
    "Logical",
    "Logistic",
    "Lonely",
    "Long",
    "Long-Term",
    "Long-Winded",
    "Longer",
    "Longest",
    "Longing",
    "Loose",
    "Lopsided",
    "Loquacious",
    "Lordly",
    "Loser",
    "Lost",
    "Loud",
    "Lousy",
    "Loutish",
    "Lovable",
    "Loveable",
    "Lovely",
    "Loving",
    "Low",
    "Low-Calorie",
    "Low-Carb",
    "Low-Fat",
    "Low-Maintenance",
    "Low-Ranking",
    "Low-Risk",
    "Lower",
    "Lowly",
    "Loyal",
    "Lucent",
    "Lucid",
    "Lucky",
    "Lucrative",
    "Ludicrous",
    "Lukewarm",
    "Lulling",
    "Lumbering",
    "Luminescent",
    "Luminous",
    "Lumpy",
    "Lurid",
    "Luscious",
    "Lush",
    "Lustrous",
    "Luxurious",
    "Lying",
    "Lyrical",
    "Macabre",
    "Machiavellian",
    "Macho",
    "Mad",
    "Maddening",
    "Magenta",
    "Magic",
    "Magical",
    "Magnanimous",
    "Magnetic",
    "Magnificent",
    "Maiden",
    "Main",
    "Maintainable",
    "Majestic",
    "Major",
    "Makeable",
    "Makeshift",
    "Maladjusted",
    "Malevolent",
    "Malicious",
    "Malignant",
    "Malleable",
    "Mammoth",
    "Man-Made",
    "Manageable",
    "Managerial",
    "Mandatory",
    "Maneuverable",
    "Mangy",
    "Maniacal",
    "Manic",
    "Manicured",
    "Manipulative",
    "Manual",
    "Marbled",
    "Marginal",
    "Marked",
    "Marketable",
    "Married",
    "Marvelous",
    "Masked",
    "Massive",
    "Master",
    "Masterful",
    "Matchless",
    "Material",
    "Materialistic",
    "Maternal",
    "Mathematical",
    "Matronly",
    "Matted",
    "Mature",
    "Maximum",
    "Meager",
    "Mean",
    "Mean-Spirited",
    "Meandering",
    "Meaningful",
    "Meaningless",
    "Measly",
    "Measurable",
    "Meat-Eating",
    "Meaty",
    "Mechanical",
    "Medical",
    "Medicinal",
    "Meditative",
    "Medium",
    "Medium-Rare",
    "Meek",
    "Melancholy",
    "Mellow",
    "Melodic",
    "Melodious",
    "Melodramatic",
    "Melted",
    "Memorable",
    "Menacing",
    "Menial",
    "Mental",
    "Merciful",
    "Merciless",
    "Mercurial",
    "Mere",
    "Merry",
    "Messy",
    "Metabolic",
    "Metallic",
    "Metaphoric",
    "Meteoric",
    "Meticulous",
    "Microscopic",
    "Microwaveable",
    "Middle",
    "Middle-Class",
    "Midweek",
    "Mighty",
    "Mild",
    "Militant",
    "Militaristic",
    "Military",
    "Milky",
    "Mincing",
    "Mind-Bending",
    "Mindful",
    "Mindless",
    "Mini",
    "Miniature",
    "Minimal",
    "Minimum",
    "Minor",
    "Minute",
    "Miraculous",
    "Mirthful",
    "Miscellaneous",
    "Mischievous",
    "Miscreant",
    "Miserable",
    "Miserly",
    "Misguided",
    "Misleading",
    "Mission",
    "Mistaken",
    "Mistrustful",
    "Mistrusting",
    "Misty",
    "Mixed",
    "Mnemonic",
    "Moaning",
    "Mobile",
    "Mocking",
    "Moderate",
    "Modern",
    "Modest",
    "Modified",
    "Modular",
    "Moist",
    "Moldy",
    "Momentary",
    "Momentous",
    "Monetary",
    "Money-Grubbing",
    "Monopolistic",
    "Monosyllabic",
    "Monotone",
    "Monotonous",
    "Monstrous",
    "Monumental",
    "Moody",
    "Moral",
    "Moralistic",
    "Morbid",
    "Mordant",
    "Moronic",
    "Morose",
    "Mortal",
    "Mortified",
    "Most",
    "Mother",
    "Motherly",
    "Motionless",
    "Motivated",
    "Motivating",
    "Motivational",
    "Motor",
    "Mountain",
    "Mountainous",
    "Mournful",
    "Mouthwatering",
    "Movable",
    "Moved",
    "Moving",
    "Much",
    "Muddled",
    "Muddy",
    "Muffled",
    "Muggy",
    "Multicultural",
    "Multifaceted",
    "Multipurpose",
    "Multitalented",
    "Mumbled",
    "Mumbling",
    "Mundane",
    "Municipal",
    "Murderous",
    "Murky",
    "Muscular",
    "Mushy",
    "Musical",
    "Musky",
    "Musty",
    "Mutative",
    "Mute",
    "Muted",
    "Mutinous",
    "Muttering",
    "Mutual",
    "Myopic",
    "Mysterious",
    "Mystic",
    "Mystical",
    "Mystified",
    "Mystifying",
    "Mythical",
    "Naive",
    "Nameless",
    "Narcissistic",
    "Narrow",
    "Narrow-Minded",
    "Nasal",
    "Nasty",
    "National",
    "Native",
    "Natural",
    "Naughty",
    "Nauseating",
    "Nauseous",
    "Nautical",
    "Navigable",
    "Navy-Blue",
    "Near",
    "Nearby",
    "Nearest",
    "Nearsighted",
    "Neat",
    "Nebulous",
    "Necessary",
    "Needless",
    "Needy",
    "Nefarious",
    "Negative",
    "Neglected",
    "Neglectful",
    "Negligent",
    "Negligible",
    "Negotiable",
    "Neighborly",
    "Nerve-Racking",
    "Nervous",
    "Neurological",
    "Neurotic",
    "Neutral",
    "New",
    "Newest",
    "Next",
    "Next-Door",
    "Nice",
    "Nifty",
    "Nightmarish",
    "Nimble",
    "Ninth",
    "Nippy",
    "Noble",
    "Nocturnal",
    "Noiseless",
    "Noisy",
    "Nominal",
    "Nonabrasive",
    "Nonaggressive",
    "Nonchalant",
    "Noncommittal",
    "Noncompetitive",
    "Nonconsecutive",
    "Nondescript",
    "Nondestructive",
    "Nonexclusive",
    "Nonnegotiable",
    "Nonproductive",
    "Nonrefundable",
    "Nonrenewable",
    "Nonresponsive",
    "Nonrestrictive",
    "Nonreturnable",
    "Nonsensical",
    "Nonspecific",
    "Nonstop",
    "Nontransferable",
    "Nonverbal",
    "Nonviolent",
    "Normal",
    "North",
    "Northeast",
    "Northerly",
    "Northwest",
    "Nostalgic",
    "Nosy",
    "Notable",
    "Noticeable",
    "Notorious",
    "Novel",
    "Noxious",
    "Null",
    "Numb",
    "Numberless",
    "Numbing",
    "Numerable",
    "Numeric",
    "Numerous",
    "Nutritional",
    "Nutritious",
    "Nutty",
    "Oafish",
    "Obedient",
    "Obeisant",
    "Obese",
    "Objectionable",
    "Objective",
    "Obligatory",
    "Obliging",
    "Oblique",
    "Oblivious",
    "Oblong",
    "Obnoxious",
    "Obscene",
    "Obscure",
    "Observable",
    "Observant",
    "Obsessive",
    "Obsolete",
    "Obstinate",
    "Obstructive",
    "Obtainable",
    "Obtrusive",
    "Obtuse",
    "Obvious",
    "Occasional",
    "Occupational",
    "Occupied",
    "Oceanic",
    "Odd",
    "Odd-Looking",
    "Odiferous",
    "Odious",
    "Odorless",
    "Odorous",
    "Offbeat",
    "Offensive",
    "Offhanded",
    "Official",
    "Officious",
    "Oily",
    "Ok",
    "Okay-est",
    "Old",
    "Old-Fashioned",
    "Older",
    "Oldest",
    "Ominous",
    "Omniscient",
    "Omnivorous",
    "One-Hour",
    "One-Sided",
    "Onerous",
    "Opaque",
    "Open",
    "Open-Minded",
    "Opened",
    "Openhanded",
    "Openhearted",
    "Opening",
    "Operable",
    "Operatic",
    "Operational",
    "Operative",
    "Opinionated",
    "Opportune",
    "Opportunistic",
    "Opposable",
    "Opposed",
    "Opposing",
    "Opposite",
    "Oppressive",
    "Optimal",
    "Optimistic",
    "Optional",
    "Opulent",
    "Oral",
    "Orange",
    "Ordinary",
    "Organic",
    "Organizational",
    "Original",
    "Ornamental",
    "Ornate",
    "Ornery",
    "Orphaned",
    "Orthopedic",
    "Ossified",
    "Ostentatious",
    "Other",
    "Otherwise",
    "Our",
    "Outer",
    "Outermost",
    "Outgoing",
    "Outlandish",
    "Outraged",
    "Outrageous",
    "Outside",
    "Outspoken",
    "Outstanding",
    "Outward",
    "Oval",
    "Overactive",
    "Overaggressive",
    "Overall",
    "Overambitious",
    "Overassertive",
    "Overbearing",
    "Overcast",
    "Overcautious",
    "Overconfident",
    "Overcritical",
    "Overcrowded",
    "Overemotional",
    "Overenthusiastic",
    "Overjoyed",
    "Overoptimistic",
    "Overpowering",
    "Overpriced",
    "Overprotective",
    "Overqualified",
    "Overrated",
    "Oversensitive",
    "Oversized",
    "Overt",
    "Overwhelmed",
    "Overwhelming",
    "Overworked",
    "Overwrought",
    "Overzealous",
    "Oxymoronic",
    "Padded",
    "Painful",
    "Painless",
    "Painstaking",
    "Palatable",
    "Palatial",
    "Pale",
    "Pallid",
    "Palpable",
    "Paltry",
    "Pampered",
    "Panicky",
    "Panoramic",
    "Paradoxical",
    "Parallel",
    "Paranormal",
    "Parasitic",
    "Parched",
    "Pardonable",
    "Parental",
    "Parenthetic",
    "Parking",
    "Parsimonious",
    "Part-Time",
    "Partial",
    "Particular",
    "Partisan",
    "Party",
    "Passing",
    "Passionate",
    "Passive",
    "Past",
    "Pastoral",
    "Patched",
    "Patchy",
    "Patented",
    "Paternal",
    "Paternalistic",
    "Pathetic",
    "Pathological",
    "Patient",
    "Patriotic",
    "Patronizing",
    "Patterned",
    "Payable",
    "Peaceable",
    "Peaceful",
    "Peculiar",
    "Pedantic",
    "Pedestrian",
    "Peerless",
    "Peeved",
    "Peevish",
    "Penetrable",
    "Penetrating",
    "Pensive",
    "Peppery",
    "Perceivable",
    "Perceptible",
    "Perceptive",
    "Perceptual",
    "Peremptory",
    "Perennial",
    "Perfect",
    "Perfumed",
    "Perilous",
    "Period",
    "Periodic",
    "Peripheral",
    "Perishable",
    "Perky",
    "Permanent",
    "Permeable",
    "Permissible",
    "Permissive",
    "Pernicious",
    "Perpendicular",
    "Perpetual",
    "Perplexed",
    "Perplexing",
    "Persevering",
    "Persistent",
    "Personable",
    "Personal",
    "Persuasive",
    "Pert",
    "Pertinent",
    "Perturbed",
    "Perturbing",
    "Pervasive",
    "Perverse",
    "Pessimistic",
    "Petite",
    "Pettish",
    "Petty",
    "Petulant",
    "Pharmaceutical",
    "Phenomenal",
    "Philanthropic",
    "Philosophical",
    "Phobic",
    "Phonemic",
    "Phonetic",
    "Phosphorescent",
    "Photographic",
    "Physical",
    "Physiological",
    "Picturesque",
    "Piercing",
    "Pigheaded",
    "Pink",
    "Pious",
    "Piquant",
    "Pitch-Dark",
    "Pitch-Perfect",
    "Piteous",
    "Pithy",
    "Pitiful",
    "Pitiless",
    "Pivotal",
    "Placid",
    "Plaid",
    "Plain",
    "Plane",
    "Planned",
    "Plastic",
    "Platonic",
    "Plausible",
    "Playful",
    "Pleading",
    "Pleasant",
    "Pleased",
    "Pleasing",
    "Pleasurable",
    "Plentiful",
    "Pliable",
    "Plodding",
    "Plopping",
    "Plucky",
    "Plump",
    "Pluralistic",
    "Plus",
    "Plush",
    "Pneumatic",
    "Poetic",
    "Poignant",
    "Pointless",
    "Poised",
    "Poisonous",
    "Polished",
    "Polite",
    "Political",
    "Polka-Dotted",
    "Polluted",
    "Polyunsaturated",
    "Pompous",
    "Ponderous",
    "Poor",
    "Poorer",
    "Poorest",
    "Popping",
    "Popular",
    "Populous",
    "Porous",
    "Portable",
    "Portly",
    "Positive",
    "Possessive",
    "Possible",
    "Post Hoc",
    "Posthumous",
    "Postoperative",
    "Potable",
    "Potent",
    "Potential",
    "Powdery",
    "Powerful",
    "Powerless",
    "Practical",
    "Pragmatic",
    "Praiseworthy",
    "Precarious",
    "Precious",
    "Precipitous",
    "Precise",
    "Precocious",
    "Preconceived",
    "Predicative",
    "Predictable",
    "Predisposed",
    "Predominant",
    "Preeminent",
    "Preemptive",
    "Prefabricated",
    "Preferable",
    "Preferential",
    "Pregnant",
    "Prehistoric",
    "Prejudiced",
    "Prejudicial",
    "Preliminary",
    "Premature",
    "Premeditated",
    "Premium",
    "Prenatal",
    "Preoccupied",
    "Preoperative",
    "Preparative",
    "Prepared",
    "Preposterous",
    "Prescriptive",
    "Present",
    "Presentable",
    "Presidential",
    "Pressing",
    "Pressurized",
    "Prestigious",
    "Presumable",
    "Presumptive",
    "Presumptuous",
    "Pretend",
    "Pretentious",
    "Pretty",
    "Prevalent",
    "Preventable",
    "Preventative",
    "Preventive",
    "Previous",
    "Priceless",
    "Pricey",
    "Prickly",
    "Prim",
    "Primary",
    "Primitive",
    "Primordial",
    "Princely",
    "Principal",
    "Principled",
    "Prior",
    "Prissy",
    "Pristine",
    "Private",
    "Prize",
    "Prized",
    "Proactive",
    "Probabilistic",
    "Probable",
    "Problematic",
    "Procedural",
    "Prodigious",
    "Productive",
    "Profane",
    "Professed",
    "Professional",
    "Professorial",
    "Proficient",
    "Profitable",
    "Profound",
    "Profuse",
    "Programmable",
    "Progressive",
    "Prohibitive",
    "Prolific",
    "Prominent",
    "Promised",
    "Promising",
    "Prompt",
    "Pronounceable",
    "Pronounced",
    "Proof",
    "Proper",
    "Prophetic",
    "Proportional",
    "Proportionate",
    "Proportioned",
    "Prospective",
    "Prosperous",
    "Protective",
    "Prototypical",
    "Proud",
    "Proverbial",
    "Provisional",
    "Provocative",
    "Provoking",
    "Proximal",
    "Proximate",
    "Prudent",
    "Prudential",
    "Prying",
    "Psychedelic",
    "Psychiatric",
    "Psychological",
    "Psychosomatic",
    "Psychotic",
    "Public",
    "Puckish",
    "Puffy",
    "Pugnacious",
    "Pumped",
    "Punctual",
    "Pungent",
    "Punishable",
    "Punitive",
    "Puny",
    "Pure",
    "Purified",
    "Puritanical",
    "Purple",
    "Purported",
    "Purposeful",
    "Purposeless",
    "Purring",
    "Pushy",
    "Pusillanimous",
    "Putrid",
    "Puzzled",
    "Puzzling",
    "Pyrotechnic",
    "Quaint",
    "Qualified",
    "Qualitative",
    "Quality",
    "Quantifiable",
    "Quantitative",
    "Quarrelsome",
    "Queasy",
    "Queenly",
    "Querulous",
    "Questionable",
    "Quick",
    "Quick-Acting",
    "Quick-Drying",
    "Quick-Minded",
    "Quick-Paced",
    "Quick-Tempered",
    "Quick-Thinking",
    "Quick-Witted",
    "Quickest",
    "Quickish",
    "Quiet",
    "Quintessential",
    "Quirky",
    "Quivering",
    "Quizzical",
    "Quotable",
    "Rabid",
    "Racial",
    "Racist",
    "Radiant",
    "Radical",
    "Radioactive",
    "Ragged",
    "Raging",
    "Rainbow Colored",
    "Rainy",
    "Rakish",
    "Rambling",
    "Rambunctious",
    "Rampageous",
    "Rampant",
    "Rancid",
    "Rancorous",
    "Random",
    "Rank",
    "Ranting",
    "Rapid",
    "Rapid-Fire",
    "Rapturous",
    "Rare",
    "Rascally",
    "Rash",
    "Rasping",
    "Raspy",
    "Rational",
    "Ratty",
    "Ravenous",
    "Raving",
    "Ravishing",
    "Raw",
    "Razor-Edged",
    "Reactive",
    "Ready",
    "Real",
    "Realistic",
    "Reasonable",
    "Reassured",
    "Reassuring",
    "Rebel",
    "Rebellious",
    "Receding",
    "Recent",
    "Receptive",
    "Recessive",
    "Rechargeable",
    "Reciprocal",
    "Reckless",
    "Reclusive",
    "Recognizable",
    "Recognized",
    "Rectangular",
    "Rectifiable",
    "Recurrent",
    "Recyclable",
    "Red",
    "Red-Blooded",
    "Reddish",
    "Redeemable",
    "Redolent",
    "Redundant",
    "Referential",
    "Refillable",
    "Reflective",
    "Refractive",
    "Refreshing",
    "Refundable",
    "Refurbished",
    "Refutable",
    "Regal",
    "Regional",
    "Regretful",
    "Regrettable",
    "Regular",
    "Reigning",
    "Relatable",
    "Relative",
    "Relaxed",
    "Relaxing",
    "Relentless",
    "Relevant",
    "Reliable",
    "Relieved",
    "Religious",
    "Reluctant",
    "Remaining",
    "Remarkable",
    "Remedial",
    "Reminiscent",
    "Remorseful",
    "Remorseless",
    "Remote",
    "Removable",
    "Renegotiable",
    "Renewable",
    "Rented",
    "Repairable",
    "Repaired",
    "Repeatable",
    "Repeated",
    "Repentant",
    "Repetitious",
    "Repetitive",
    "Replaceable",
    "Replicable",
    "Reported",
    "Reprehensible",
    "Representative",
    "Repressive",
    "Reproachful",
    "Reproductive",
    "Republican",
    "Repugnant",
    "Repulsive",
    "Reputable",
    "Reputed",
    "Rescued",
    "Resealable",
    "Resentful",
    "Reserved",
    "Resident",
    "Residential",
    "Residual",
    "Resilient",
    "Resolute",
    "Resolvable",
    "Resonant",
    "Resounding",
    "Resourceful",
    "Respectable",
    "Respectful",
    "Respective",
    "Responsible",
    "Responsive",
    "Rested",
    "Restful",
    "Restless",
    "Restored",
    "Restrained",
    "Restrictive",
    "Retired",
    "Retroactive",
    "Retrogressive",
    "Retrospective",
    "Reusable",
    "Revamped",
    "Revealing",
    "Revengeful",
    "Reverent",
    "Reverential",
    "Reverse",
    "Reversible",
    "Reviewable",
    "Reviled",
    "Revisable",
    "Revised",
    "Revocable",
    "Revolting",
    "Revolutionary",
    "Rewarding",
    "Rhetorical",
    "Rhythmic",
    "Rich",
    "Richer",
    "Richest",
    "Ridiculing",
    "Ridiculous",
    "Right",
    "Right-Handed",
    "Righteous",
    "Rightful",
    "Rigid",
    "Rigorous",
    "Ringing",
    "Riotous",
    "Ripe",
    "Rippling",
    "Risky",
    "Ritualistic",
    "Ritzy",
    "Riveting",
    "Roaring",
    "Roasted",
    "Robotic",
    "Robust",
    "Rocketing",
    "Roguish",
    "Romantic",
    "Roomy",
    "Rosy",
    "Rotating",
    "Rotten",
    "Rotting",
    "Rotund",
    "Rough",
    "Round",
    "Roundtable",
    "Rousing",
    "Routine",
    "Rowdy",
    "Royal",
    "Ruddy",
    "Rude",
    "Rudimentary",
    "Rueful",
    "Rugged",
    "Ruined",
    "Ruinous",
    "Rumbling",
    "Rumpled",
    "Ruptured",
    "Rural",
    "Rusted",
    "Rustic",
    "Rustling",
    "Rusty",
    "Ruthless",
    "Rutted",
    "Saccharin",
    "Sacred",
    "Sacrificial",
    "Sacrilegious",
    "Sad",
    "Saddened",
    "Safe",
    "Saintly",
    "Salacious",
    "Salient",
    "Salt",
    "Salted",
    "Salty",
    "Salvageable",
    "Salvaged",
    "Same",
    "Sanctimonious",
    "Sandy",
    "Sane",
    "Sanguine",
    "Sanitary",
    "Sappy",
    "Sarcastic",
    "Sardonic",
    "Sassy",
    "Satin",
    "Satiny",
    "Satiric",
    "Satirical",
    "Satisfactory",
    "Satisfied",
    "Satisfying",
    "Saucy",
    "Savage",
    "Savory",
    "Savvy",
    "Scalding",
    "Scaly",
    "Scandalous",
    "Scant",
    "Scanty",
    "Scarce",
    "Scared",
    "Scarred",
    "Scary",
    "Scathing",
    "Scattered",
    "Scenic",
    "Scented",
    "Scheduled",
    "Schematic",
    "Scholarly",
    "Scholastic",
    "Scientific",
    "Scintillating",
    "Scorching",
    "Scornful",
    "Scrabbled",
    "Scrabbling",
    "Scraggly",
    "Scrappy",
    "Scratched",
    "Scratchy",
    "Scrawny",
    "Screaming",
    "Screeching",
    "Scribbled",
    "Scriptural",
    "Scruffy",
    "Scrumptious",
    "Scrupulous",
    "Sculpted",
    "Sculptural",
    "Scummy",
    "Sea",
    "Sea-worthy",
    "Sealed",
    "Seamless",
    "Searching",
    "Searing",
    "Seasick",
    "Seasonable",
    "Seasonal",
    "Secluded",
    "Second",
    "Second-Hand",
    "Secondary",
    "Secret",
    "Secretive",
    "Secular",
    "Secure",
    "Secured",
    "Sedate",
    "Seditious",
    "Seductive",
    "Seedy",
    "Seeming",
    "Seemly",
    "Seething",
    "Seismic",
    "Select",
    "Selected",
    "Selective",
    "Self-Absorbed",
    "Self-Aggrandizing",
    "Self-Assured",
    "Self-Centered",
    "Self-Confident",
    "Self-Directed",
    "Self-Disciplined",
    "Self-Effacing",
    "Self-Indulgent",
    "Self-Interested",
    "Self-Reliant",
    "Self-Respect",
    "Self-Satisfied",
    "Selfish",
    "Selfless",
    "Sellable",
    "Semiconscious",
    "Semiofficial",
    "Semiprecious",
    "Semiprofessional",
    "Senior",
    "Sensational",
    "Senseless",
    "Sensible",
    "Sensitive",
    "Sensual",
    "Sensuous",
    "Sentimental",
    "Separate",
    "Sequential",
    "Serendipitous",
    "Serene",
    "Serial",
    "Serious",
    "Serrated",
    "Serviceable",
    "Seventh",
    "Several",
    "Severe",
    "Shabbiest",
    "Shabby",
    "Shaded",
    "Shadowed",
    "Shadowy",
    "Shady",
    "Shaggy",
    "Shaky",
    "Shallow",
    "Shamefaced",
    "Shameful",
    "Shameless",
    "Shapeless",
    "Shapely",
    "Sharp",
    "Sharpened",
    "Shattered",
    "Shattering",
    "Sheepish",
    "Sheer",
    "Sheltered",
    "Shifty",
    "Shimmering",
    "Shining",
    "Shiny",
    "Shivering",
    "Shivery",
    "Shocked",
    "Shocking",
    "Shoddy",
    "Short",
    "Short-Lived",
    "Short-Tempered",
    "Short-Term",
    "Shortsighted",
    "Showy",
    "Shrewd",
    "Shrieking",
    "Shrill",
    "Shut",
    "Shy",
    "Sick",
    "Sickened",
    "Sickening",
    "Sickly",
    "Side-Splitting",
    "Signed",
    "Significant",
    "Silent",
    "Silky",
    "Silly",
    "Silver",
    "Silver-Tongued",
    "Simian",
    "Similar",
    "Simple",
    "Simpleminded",
    "Simplified",
    "Simplistic",
    "Simultaneous",
    "Sincere",
    "Sinful",
    "Single",
    "Single-Minded",
    "Singular",
    "Sinister",
    "Sinuous",
    "Sisterly",
    "Sixth",
    "Sizable",
    "Sizzling",
    "Skeptical",
    "Sketchy",
    "Skilled",
    "Skillful",
    "Skimpy",
    "Skin-Deep",
    "Skinny",
    "Skittish",
    "Sky-Blue",
    "Slanderous",
    "Slanted",
    "Slanting",
    "Sleek",
    "Sleeping",
    "Sleepless",
    "Sleepy",
    "Slender",
    "Slick",
    "Slight",
    "Slim",
    "Slimy",
    "Slippery",
    "Sloped",
    "Sloping",
    "Sloppy",
    "Slothful",
    "Slow",
    "Slow-Moving",
    "Sluggish",
    "Slushy",
    "Sly",
    "Small",
    "Small-Minded",
    "Small-Scale",
    "Small-Time",
    "Small-Town",
    "Smaller",
    "Smallest",
    "Smarmy",
    "Smart",
    "Smarter",
    "Smartest",
    "Smashing",
    "Smeared",
    "Smelly",
    "Smiling",
    "Smoggy",
    "Smoked",
    "Smoky",
    "Smooth",
    "Smothering",
    "Smudged",
    "Smug",
    "Snapping",
    "Snappish",
    "Snappy",
    "Snarling",
    "Sneaky",
    "Snide",
    "Snippy",
    "Snobbish",
    "Snoopy",
    "Snooty",
    "Snoring",
    "Snotty",
    "Snow-White",
    "Snug",
    "Snuggly",
    "Soaked",
    "Soaking",
    "Soaking Wet",
    "Soaring",
    "Sober",
    "Sociable",
    "Social",
    "Socialist",
    "Sociological",
    "Soft",
    "Softhearted",
    "Soggy",
    "Solar",
    "Soldierly",
    "Sole",
    "Solemn",
    "Solicitous",
    "Solid",
    "Solitary",
    "Somatic",
    "Somber",
    "Some",
    "Sonic",
    "Sonly",
    "Soothed",
    "Soothing",
    "Sophisticated",
    "Sordid",
    "Sore",
    "Sorrowful",
    "Sorry",
    "Soulful",
    "Soulless",
    "Soundless",
    "Sour",
    "South",
    "Southeasterly",
    "Southern",
    "Southwestern",
    "Spacious",
    "Spare",
    "Sparing",
    "Sparkling",
    "Sparkly",
    "Sparse",
    "Spasmodic",
    "Spastic",
    "Spatial",
    "Spattered",
    "Special",
    "Specialist",
    "Specialized",
    "Specific",
    "Speckled",
    "Spectacular",
    "Spectral",
    "Speculative",
    "Speechless",
    "Speedy",
    "Spellbinding",
    "Spendthrift",
    "Spherical",
    "Spicy",
    "Spiffy",
    "Spiky",
    "Spinal",
    "Spineless",
    "Spiny",
    "Spiral",
    "Spiraled",
    "Spirited",
    "Spiritless",
    "Spiritual",
    "Spiteful",
    "Splashing",
    "Splashy",
    "Splattered",
    "Splendid",
    "Splintered",
    "Spoiled",
    "Spoken",
    "Spongy",
    "Spontaneous",
    "Spooky",
    "Sporadic",
    "Sporting",
    "Sportsmanly",
    "Spotless",
    "Spotted",
    "Spotty",
    "Springy",
    "Sprite",
    "Spry",
    "Spurious",
    "Squalid",
    "Squandered",
    "Square",
    "Squashed",
    "Squashy",
    "Squatting",
    "Squawking",
    "Squealing",
    "Squeamish",
    "Squeezable",
    "Squiggly",
    "Squinty",
    "Squirming",
    "Squirrelly",
    "Stable",
    "Stackable",
    "Stacked",
    "Staggering",
    "Stagnant",
    "Stained",
    "Stale",
    "Stanch",
    "Standard",
    "Standing",
    "Standoffish",
    "Star-Crossed",
    "Starched",
    "Stark",
    "Startled",
    "Startling",
    "Starving",
    "Stately",
    "Static",
    "Statistical",
    "Statuesque",
    "Status",
    "Statutory",
    "Staunch",
    "Steadfast",
    "Steady",
    "Stealth",
    "Steaming",
    "Steamy",
    "Steel",
    "Steely",
    "Steep",
    "Stereophonic",
    "Stereotyped",
    "Stereotypical",
    "Sterile",
    "Stern",
    "Sticky",
    "Stiff",
    "Stifled",
    "Stifling",
    "Stigmatic",
    "Still",
    "Stilled",
    "Stilted",
    "Stimulating",
    "Stinging",
    "Stingy",
    "Stinking",
    "Stinky",
    "Stirring",
    "Stock",
    "Stodgy",
    "Stoic",
    "Stony",
    "Stormy",
    "Stout",
    "Straggly",
    "Straight",
    "Straightforward",
    "Stranded",
    "Strange",
    "Strategic",
    "Streaked",
    "Street",
    "Strenuous",
    "Stressful",
    "Stretchy",
    "Strict",
    "Strident",
    "Striking",
    "Stringent",
    "Striped",
    "Strong",
    "Stronger",
    "Strongest",
    "Structural",
    "Stubborn",
    "Stubby",
    "Stuck-Up",
    "Studied",
    "Studious",
    "Stuffed",
    "Stuffy",
    "Stumbling",
    "Stunned",
    "Stunning",
    "Stupendous",
    "Sturdy",
    "Stuttering",
    "Stylish",
    "Stylistic",
    "Suave",
    "Subconscious",
    "Subdued",
    "Subject",
    "Subjective",
    "Sublime",
    "Subliminal",
    "Submissive",
    "Subordinate",
    "Subsequent",
    "Subservient",
    "Substantial",
    "Substantiated",
    "Substitute",
    "Subterranean",
    "Subtitled",
    "Subtle",
    "Subversive",
    "Successful",
    "Successive",
    "Succinct",
    "Succulent",
    "Such",
    "Sudden",
    "Suffering",
    "Sufficient",
    "Sugary",
    "Suggestive",
    "Suitable",
    "Sulky",
    "Sullen",
    "Sumptuous",
    "Sunny",
    "Super",
    "Superabundant",
    "Superb",
    "Supercilious",
    "Superficial",
    "Superhuman",
    "Superior",
    "Superlative",
    "Supernatural",
    "Supersensitive",
    "Supersonic",
    "Superstitious",
    "Supple",
    "Supportive",
    "Supposed",
    "Suppressive",
    "Supreme",
    "Sure",
    "Sure-Footed",
    "Surgical",
    "Surly",
    "Surmountable",
    "Surprised",
    "Surprising",
    "Surrealistic",
    "Survivable",
    "Susceptible",
    "Suspected",
    "Suspicious",
    "Sustainable",
    "Swaggering",
    "Swanky",
    "Swaying",
    "Sweaty",
    "Sweeping",
    "Sweet",
    "Sweltering",
    "Swift",
    "Swimming",
    "Swinish",
    "Swishing",
    "Swollen",
    "Swooping",
    "Syllabic",
    "Syllogistic",
    "Symbiotic",
    "Symbolic",
    "Symmetrical",
    "Sympathetic",
    "Symptomatic",
    "Synergistic",
    "Synonymous",
    "Syntactic",
    "Synthetic",
    "Systematic",
    "Taboo",
    "Tacit",
    "Tacky",
    "Tactful",
    "Tactical",
    "Tactless",
    "Tactual",
    "Tailor-made",
    "Tainted",
    "Take-charge",
    "Talented",
    "Talkative",
    "Tall",
    "Taller",
    "Tallest",
    "Tame",
    "Tamed",
    "Tan",
    "Tangential",
    "Tangible",
    "Tangled",
    "Tangy",
    "Tanned",
    "Tantalizing",
    "Tapered",
    "Tardy",
    "Targeted",
    "Tarnished",
    "Tart",
    "Tasteful",
    "Tasteless",
    "Tasty",
    "Tattered",
    "Taunting",
    "Taut",
    "Taxing",
    "Teachable",
    "Tearful",
    "Tearing",
    "Teasing",
    "Technical",
    "Technological",
    "Tectonic",
    "Tedious",
    "Teeming",
    "Teenage",
    "Teensy",
    "Teeny",
    "Teeny-Tiny",
    "Telegraphic",
    "Telekinetic",
    "Telepathic",
    "Telephonic",
    "Telescopic",
    "Telling",
    "Temperamental",
    "Temperate",
    "Tempered",
    "Tempestuous",
    "Temporary",
    "Tempted",
    "Tempting",
    "Ten",
    "Ten-Minute",
    "Tenable",
    "Tenacious",
    "Tender",
    "Tender-hearted",
    "Tenderhearted",
    "Tense",
    "Tentative",
    "Tenth",
    "Tenuous",
    "Tepid",
    "Terminal",
    "Terrestrial",
    "Terrible",
    "Terrific",
    "Terrified",
    "Terrifying",
    "Territorial",
    "Terse",
    "Tested",
    "Testimonial",
    "Testy",
    "Tetchy",
    "Textual",
    "Textural",
    "Thankful",
    "Thankless",
    "Thankworthy",
    "That",
    "Theatrical",
    "Their",
    "Thematic",
    "Theological",
    "Theoretical",
    "Therapeutic",
    "Thermal",
    "Thick",
    "Thievish",
    "Thin",
    "Thinkable",
    "Third",
    "Thirsty",
    "This",
    "Thorny",
    "Thorough",
    "Those",
    "Thoughtful",
    "Thoughtless",
    "Thrashed",
    "Threatened",
    "Threatening",
    "Thriftless",
    "Thrifty",
    "Thrilled",
    "Thrilling",
    "Throbbing",
    "Thumping",
    "Thundering",
    "Thunderous",
    "Ticking",
    "Tickling",
    "Ticklish",
    "Tidal",
    "Tidy",
    "Tight",
    "Tightfisted",
    "Time",
    "Timeless",
    "Timely",
    "Timid",
    "Timorous",
    "Tiny",
    "Tipsy",
    "Tired",
    "Tireless",
    "Tiresome",
    "Tiring",
    "Tolerable",
    "Tolerant",
    "Tonal",
    "Tone-Deaf",
    "Toneless",
    "Toothsome",
    "Toothy",
    "Top",
    "Topical",
    "Topographical",
    "Tormented",
    "Torpid",
    "Torrential",
    "Torrid",
    "Torturous",
    "Total",
    "Touched",
    "Touching",
    "Touchy",
    "Tough",
    "Towering",
    "Toxic",
    "Traditional",
    "Tragic",
    "Trainable",
    "Trained",
    "Training",
    "Traitorous",
    "Tranquil",
    "Transcendent",
    "Transcendental",
    "Transformational",
    "Transformative",
    "Transformed",
    "Transient",
    "Transitional",
    "Transitory",
    "Translucent",
    "Transparent",
    "Transplanted",
    "Trapped",
    "Trashed",
    "Trashy",
    "Traumatic",
    "Treacherous",
    "Treasonable",
    "Treasonous",
    "Treasured",
    "Treatable",
    "Tremendous",
    "Tremulous",
    "Trenchant",
    "Trendy",
    "Triangular",
    "Tribal",
    "Trick",
    "Tricky",
    "Trim",
    "Tripping",
    "Trite",
    "Triumphant",
    "Trivial",
    "Tropical",
    "Troubled",
    "Troublesome",
    "Troubling",
    "Truculent",
    "True",
    "Trusted",
    "Trustful",
    "Trusting",
    "Trustworthy",
    "Trusty",
    "Truthful",
    "Trying",
    "Tumultuous",
    "Tuneful",
    "Tuneless",
    "Turbulent",
    "Twinkling",
    "Twinkly",
    "Twisted",
    "Twitchy",
    "Typical",
    "Tyrannical",
    "Tyrannous",
    "Ubiquitous",
    "Ugly",
    "Ultimate",
    "Ultraconservative",
    "Ultrasensitive",
    "Ultrasonic",
    "Ultraviolet",
    "Unabashed",
    "Unabated",
    "Unable",
    "Unacceptable",
    "Unaccompanied",
    "Unaccountable",
    "Unaccustomed",
    "Unacknowledged",
    "Unadorned",
    "Unadulterated",
    "Unadventurous",
    "Unadvised",
    "Unaffected",
    "Unaffordable",
    "Unafraid",
    "Unaggressive",
    "Unaided",
    "Unalienable",
    "Unalterable",
    "Unaltered",
    "Unambiguous",
    "Unanimous",
    "Unannounced",
    "Unanswerable",
    "Unanticipated",
    "Unapologetic",
    "Unappealing",
    "Unappetizing",
    "Unappreciative",
    "Unapproachable",
    "Unashamed",
    "Unassailable",
    "Unassertive",
    "Unassisted",
    "Unattached",
    "Unattainable",
    "Unattractive",
    "Unauthorized",
    "Unavailable",
    "Unavailing",
    "Unavoidable",
    "Unbalanced",
    "Unbearable",
    "Unbeatable",
    "Unbeaten",
    "Unbecoming",
    "Unbelievable",
    "Unbelieving",
    "Unbendable",
    "Unbending",
    "Unbiased",
    "Unblemished",
    "Unblinking",
    "Unblushing",
    "Unbounded",
    "Unbreakable",
    "Unbridled",
    "Uncanny",
    "Uncaring",
    "Unceasing",
    "Unceremonious",
    "Uncertain",
    "Unchangeable",
    "Unchanging",
    "Uncharacteristic",
    "Uncharitable",
    "Uncharted",
    "Uncivil",
    "Uncivilized",
    "Unclassified",
    "Unclean",
    "Uncluttered",
    "Uncomely",
    "Uncomfortable",
    "Uncommitted",
    "Uncommon",
    "Uncommunicative",
    "Uncomplaining",
    "Uncomprehending",
    "Uncompromising",
    "Unconcerned",
    "Unconditional",
    "Unconfirmed",
    "Unconquerable",
    "Unconscionable",
    "Unconscious",
    "Unconstitutional",
    "Unconstrained",
    "Unconstructive",
    "Uncontainable",
    "Uncontrollable",
    "Unconventional",
    "Unconvinced",
    "Unconvincing",
    "Uncooked",
    "Uncooperative",
    "Uncoordinated",
    "Uncouth",
    "Uncovered",
    "Uncreative",
    "Uncritical",
    "Undamaged",
    "Undated",
    "Undaunted",
    "Undeclared",
    "Undefeated",
    "Undefined",
    "Undemocratic",
    "Undeniable",
    "Undependable",
    "Underdeveloped",
    "Underfunded",
    "Underhanded",
    "Underprivileged",
    "Understandable",
    "Understanding",
    "Understated",
    "Understood",
    "Undeserved",
    "Undesirable",
    "Undetected",
    "Undeterred",
    "Undeveloped",
    "Undeviating",
    "Undifferentiated",
    "Undignified",
    "Undiminished",
    "Undiplomatic",
    "Undisciplined",
    "Undiscovered",
    "Undisguised",
    "Undisputed",
    "Undistinguished",
    "Undivided",
    "Undoubted",
    "Unearthly",
    "Uneasy",
    "Uneducated",
    "Unemotional",
    "Unemployed",
    "Unencumbered",
    "Unending",
    "Unendurable",
    "Unenforceable",
    "Unenthusiastic",
    "Unenviable",
    "Unequal",
    "Unequaled",
    "Unequivocal",
    "Unerring",
    "Uneven",
    "Uneventful",
    "Unexceptional",
    "Unexcited",
    "Unexpected",
    "Unexplainable",
    "Unexplored",
    "Unexpressive",
    "Unfailing",
    "Unfair",
    "Unfaithful",
    "Unfaltering",
    "Unfamiliar",
    "Unfashionable",
    "Unfathomable",
    "Unfavorable",
    "Unfeeling",
    "Unfettered",
    "Unfilled",
    "Unflagging",
    "Unflappable",
    "Unflattering",
    "Unflinching",
    "Unfocused",
    "Unforeseeable",
    "Unforgettable",
    "Unforgivable",
    "Unforgiving",
    "Unfortunate",
    "Unfriendly",
    "Unfulfilled",
    "Ungallant",
    "Ungenerous",
    "Ungentlemanly",
    "Unglamorous",
    "Ungraceful",
    "Ungracious",
    "Ungrateful",
    "Unguarded",
    "Unhandsome",
    "Unhappy",
    "Unharmed",
    "Unhealthy",
    "Unheated",
    "Unheeded",
    "Unhelpful",
    "Unhesitating",
    "Unhurried",
    "Uniform",
    "Unilateral",
    "Unimaginable",
    "Unimaginative",
    "Unimpeachable",
    "Unimpeded",
    "Unimpressive",
    "Unincorporated",
    "Uninformed",
    "Uninhabitable",
    "Uninhibited",
    "Uninitiated",
    "Uninjured",
    "Uninspired",
    "Uninsurable",
    "Unintelligent",
    "Unintelligible",
    "Unintended",
    "Unintentional",
    "Uninterested",
    "Uninterrupted",
    "Uninvited",
    "Unique",
    "United",
    "Universal",
    "Unjust",
    "Unjustifiable",
    "Unkempt",
    "Unkind",
    "Unknowing",
    "Unknown",
    "Unlawful",
    "Unlicensed",
    "Unlikable",
    "Unlikely",
    "Unlivable",
    "Unloved",
    "Unlucky",
    "Unmanageable",
    "Unmanly",
    "Unmanned",
    "Unmarketable",
    "Unmasked",
    "Unmatched",
    "Unmemorable",
    "Unmentionable",
    "Unmerciful",
    "Unmistakable",
    "Unmitigated",
    "Unmodified",
    "Unmotivated",
    "Unnatural",
    "Unnecessary",
    "Unnerved",
    "Unnerving",
    "Unnoticeable",
    "Unobserved",
    "Unobtainable",
    "Unobtrusive",
    "Unofficial",
    "Unopened",
    "Unopposed",
    "Unorthodox",
    "Unostentatious",
    "Unpalatable",
    "Unpardonable",
    "Unpersuasive",
    "Unperturbed",
    "Unplanned",
    "Unpleasant",
    "Unprecedented",
    "Unpredictable",
    "Unpretentious",
    "Unprincipled",
    "Unproductive",
    "Unprofessional",
    "Unprofitable",
    "Unpromising",
    "Unpronounceable",
    "Unprovoked",
    "Unqualified",
    "Unquantifiable",
    "Unquenchable",
    "Unquestionable",
    "Unquestioned",
    "Unquestioning",
    "Unraveled",
    "Unreachable",
    "Unreadable",
    "Unrealistic",
    "Unrealized",
    "Unreasonable",
    "Unreceptive",
    "Unrecognizable",
    "Unrecognized",
    "Unredeemable",
    "Unregulated",
    "Unrelenting",
    "Unreliable",
    "Unremarkable",
    "Unremitting",
    "Unrepentant",
    "Unrepresentative",
    "Unrepresented",
    "Unreserved",
    "Unrespectable",
    "Unresponsive",
    "Unrestrained",
    "Unripe",
    "Unrivaled",
    "Unromantic",
    "Unruffled",
    "Unruly",
    "Unsafe",
    "Unsalvageable",
    "Unsatisfactory",
    "Unsatisfied",
    "Unscheduled",
    "Unscholarly",
    "Unscientific",
    "Unscrupulous",
    "Unseasonable",
    "Unseemly",
    "Unselfish",
    "Unsettled",
    "Unsettling",
    "Unshakable",
    "Unshapely",
    "Unsightly",
    "Unsigned",
    "Unsinkable",
    "Unskilled",
    "Unsociable",
    "Unsolicited",
    "Unsolvable",
    "Unsolved",
    "Unsophisticated",
    "Unsound",
    "Unsparing",
    "Unspeakable",
    "Unspoiled",
    "Unstable",
    "Unstated",
    "Unsteady",
    "Unstoppable",
    "Unstressed",
    "Unstructured",
    "Unsubstantial",
    "Unsubstantiated",
    "Unsuccessful",
    "Unsuitable",
    "Unsuited",
    "Unsupervised",
    "Unsupported",
    "Unsure",
    "Unsurpassable",
    "Unsurpassed",
    "Unsurprising",
    "Unsuspected",
    "Unsuspecting",
    "Unsustainable",
    "Unsympathetic",
    "Unsystematic",
    "Untainted",
    "Untamable",
    "Untamed",
    "Untapped",
    "Untenable",
    "Untested",
    "Unthinkable",
    "Unthinking",
    "Untidy",
    "Untimely",
    "Untitled",
    "Untouchable",
    "Untraditional",
    "Untrained",
    "Untried",
    "Untroubled",
    "Untrustworthy",
    "Untruthful",
    "Unused",
    "Unusual",
    "Unverified",
    "Unwary",
    "Unwashed",
    "Unwatchable",
    "Unwavering",
    "Unwholesome",
    "Unwieldy",
    "Unwilling",
    "Unwise",
    "Unwitting",
    "Unworkable",
    "Unworldly",
    "Unworthy",
    "Unwritten",
    "Unyielding",
    "Up-To-Date",
    "Up-To-The-Minute",
    "Upbeat",
    "Upmost",
    "Upper",
    "Uppity",
    "Upright",
    "Uproarious",
    "Upset",
    "Upsetting",
    "Upstairs",
    "Uptight",
    "Upward",
    "Urbane",
    "Urgent",
    "Usable",
    "Used",
    "Useful",
    "Useless",
    "Usual",
    "Utilitarian",
    "Utopian",
    "Utter",
    "Uttermost",
    "Vacant",
    "Vacillating",
    "Vacuous",
    "Vagabond",
    "Vagrant",
    "Vague",
    "Vain",
    "Valiant",
    "Valid",
    "Valorous",
    "Valuable",
    "Vanishing",
    "Vapid",
    "Vaporous",
    "Variable",
    "Varied",
    "Varying",
    "Vast",
    "Vegetable",
    "Vegetarian",
    "Vegetative",
    "Vehement",
    "Velvety",
    "Venal",
    "Venerable",
    "Vengeful",
    "Venomous",
    "Venturesome",
    "Venturous",
    "Veracious",
    "Verbal",
    "Verbose",
    "Verdant",
    "Verifiable",
    "Verified",
    "Veritable",
    "Vernacular",
    "Versatile",
    "Versed",
    "Vertical",
    "Very",
    "Vexed",
    "Vexing",
    "Viable",
    "Vibrant",
    "Vibrating",
    "Vicarious",
    "Vicious",
    "Victorious",
    "Vigilant",
    "Vigorous",
    "Vile",
    "Villainous",
    "Vindictive",
    "Vinegary",
    "Violent",
    "Violet",
    "Viperous",
    "Viral",
    "Virtual",
    "Virtuous",
    "Virulent",
    "Visceral",
    "Viscous",
    "Visible",
    "Visionary",
    "Visual",
    "Vital",
    "Vitriolic",
    "Vivacious",
    "Vivid",
    "Vocal",
    "Vocational",
    "Voiceless",
    "Volatile",
    "Volcanic",
    "Voluminous",
    "Voluntary",
    "Voluptuous",
    "Voracious",
    "Vulgar",
    "Vulnerable",
    "Wacky",
    "Wailing",
    "Waiting",
    "Wakeful",
    "Wandering",
    "Wanting",
    "Wanton",
    "Warlike",
    "Warm",
    "Warmest",
    "Warning",
    "Warring",
    "Wary",
    "Waspish",
    "Waste",
    "Wasted",
    "Wasteful",
    "Watchful",
    "Waterlogged",
    "Waterproof",
    "Watertight",
    "Watery",
    "Wavering",
    "Wax",
    "Waxen",
    "Weak",
    "Weak-Willed",
    "Weakened",
    "Wealthy",
    "Wearisome",
    "Weary",
    "Wee",
    "Weedy",
    "Week-Long",
    "Weekly",
    "Weightless",
    "Weighty",
    "Weird",
    "Welcoming",
    "Well",
    "Well-Adjusted",
    "Well-Argued",
    "Well-Aware",
    "Well-Balanced",
    "Well-Behaved",
    "Well-Built",
    "Well-Conceived",
    "Well-Considered",
    "Well-Crafted",
    "Well-Deserved",
    "Well-Developed",
    "Well-Done",
    "Well-Dressed",
    "Well-Educated",
    "Well-Equipped",
    "Well-Established",
    "Well-Founded",
    "Well-Groomed",
    "Well-Heeled",
    "Well-Honed",
    "Well-Informed",
    "Well-Intentioned",
    "Well-Kempt",
    "Well-Known",
    "Well-Liked",
    "Well-Lit",
    "Well-Made",
    "Well-Maintained",
    "Well-Mannered",
    "Well-Meaning",
    "Well-Off",
    "Well-Placed",
    "Well-Planned",
    "Well-Prepared",
    "Well-Qualified",
    "Well-Read",
    "Well-Received",
    "Well-Rounded",
    "Well-Spoken",
    "Well-Suited",
    "Well-Thought-Of",
    "Well-Thought-Out",
    "Well-To-Do",
    "Well-Traveled",
    "Well-Used",
    "Well-Versed",
    "Well-Worn",
    "Well-Written",
    "West",
    "Western",
    "Wet",
    "What",
    "Wheezing",
    "Which",
    "Whimpering",
    "Whimsical",
    "Whining",
    "Whispering",
    "Whistling",
    "White",
    "Whole",
    "Wholehearted",
    "Wholesale",
    "Wholesome",
    "Whooping",
    "Whopping",
    "Whose",
    "Wicked",
    "Wide",
    "Wide-Eyed",
    "Wide-Ranging",
    "Widespread",
    "Wiggly",
    "Wild",
    "Wild Eyed",
    "Willful",
    "Willing",
    "Wily",
    "Windy",
    "Winning",
    "Winsome",
    "Winter",
    "Wintery",
    "Wiry",
    "Wise",
    "Wishful",
    "Wispy",
    "Wistful",
    "Withering",
    "Witless",
    "Witty",
    "Wizardly",
    "Wobbly",
    "Woeful",
    "Wolfish",
    "Wonderful",
    "Wondrous",
    "Wonted",
    "Wood",
    "Wooden",
    "Wooing",
    "Wool",
    "Woolen",
    "Woozy",
    "Wordless",
    "Wordy",
    "Work",
    "Work-Oriented",
    "Workable",
    "Working",
    "Worldly",
    "Worn",
    "Worn Down",
    "Worn Out",
    "Worried",
    "Worrisome",
    "Worrying",
    "Worse",
    "Worshipful",
    "Worst",
    "Worth",
    "Worthless",
    "Worthwhile",
    "Worthy",
    "Wounding",
    "Wrathful",
    "Wrenching",
    "Wretched",
    "Wriggling",
    "Wriggly",
    "Wrinkled",
    "Wrinkly",
    "Written",
    "Wrong",
    "Wrongful",
    "Wry",
    "Yawning",
    "Yearly",
    "Yearning",
    "Yellow",
    "Yellow-Bellied",
    "Yelping",
    "Yielding",
    "Young",
    "Younger",
    "Youngest",
    "Youthful",
    "Yummy",
    "Zany",
    "Zealous",
    "Zestful",
    "Zesty",
    "Zippy",
    "Zonked",
    "Zoological"
]
